,0
!,0
"""",1
#,2
$,3
%,4
&,5
',6
(,7
),8
*,9
+,10
",",11
-,12
0,13
1,14
2,15
3,16
4,17
5,18
6,19
7,20
8,21
9,22
:,23
;,24
<,25
=,26
>,27
?,28
@,29
A,30
Angularity,31
B,32
C,33
CircularRoundness,34
CircularRunOut,35
Connectricity,36
Cylindricity,37
D,38
E,39
F,40
Flatness,41
G,42
H,43
I,44
J,45
K,46
L,47
M,48
N,49
O,50
P,51
Parallelism,52
Perpendicularity,53
Pi,54
Position,55
PrfOfLine,56
PrfOfSurface,57
Q,58
R,59
S,60
Symmetry,61
T,62
TotalRunout,63
U,64
V,65
W,66
X,67
Y,68
Z,69
[,70
\,71
],72
^,73
_,74
`,75
a,76
b,77
d,78
e,79
f,80
g,81
h,82
i,83
j,84
k,85
m,86
n,87
q,88
r,89
t,90
u,91
y,92
{,93
},94
~,95
Θ,96
α,97
